[
  {
    "name": "asset",
    "properties": [
        {
          "name": "cost",
          "dataType": 3,
          "required": true
        },
        {
          "name": "quantity",
          "dataType": 2
        },
        {
          "name": "due",
          "dataType": 1
        },
        {
          "name": "destination",
          "dataType": 1
        },
        {
          "name": "sku",
          "dataType": 1
        },
        {
          "name": "poline",
          "dataType": 2
        }
    ]
  }
]
